<?xml version="1.0" encoding="UTF-8" standalone="no"?>
<!-- Created with Inkscape (http://www.inkscape.org/) -->

<svg
   width="31.978228"
   height="31.94541"
   viewBox="0 0 8.460906 8.4522229"
   version="1.1"
   id="svg12"
   xmlns:inkscape="http://www.inkscape.org/namespaces/inkscape"
   xmlns:sodipodi="http://sodipodi.sourceforge.net/DTD/sodipodi-0.dtd"
   xmlns="http://www.w3.org/2000/svg"
   xmlns:svg="http://www.w3.org/2000/svg">
  <sodipodi:namedview
     id="namedview14"
     pagecolor="#ffffff"
     bordercolor="#999999"
     borderopacity="1"
     inkscape:showpageshadow="0"
     inkscape:pageopacity="0"
     inkscape:pagecheckerboard="0"
     inkscape:deskcolor="#d1d1d1"
     inkscape:document-units="mm"
     showgrid="false" />
  <defs
     id="defs9" />
  <g
     inkscape:label="Ebene 1"
     inkscape:groupmode="layer"
     id="layer1"
     transform="translate(-0.00497624,-0.00203112)">
    <path
       style="fill:#000000;stroke-width:0.264583"
       d="M 0.00497624,0.00203112 8.465882,0.01345618 8.4527304,4.3904295 c 0,0 -2.2183949,0.058649 -2.8306266,-0.9317786 C 5.0863466,2.591939 3.8734153,2.6706179 3.3875614,3.4728177 2.7465889,4.5311357 0.01320231,4.392308 0.01320231,4.392308 Z"
       id="path333"
       sodipodi:nodetypes="cccsscc" />
    <rect
       style="fill:#000000;stroke-width:0.264583"
       id="rect384"
       width="4.6170015"
       height="2.0581899"
       x="1.8690921"
       y="6.3960643"
       ry="0" />
  </g>
</svg>
